<?xml version="1.0" encoding="UTF-8"?>
<svg width="6px" height="10px" viewBox="0 0 6 10" version="1.1" xmlns="http://www.w3.org/2000/svg" xmlns:xlink="http://www.w3.org/1999/xlink">
    <!-- Generator: Sketch 52.4 (67378) - http://www.bohemiancoding.com/sketch -->
    <title>Right Arrow</title>
    <desc>Created with Sketch.</desc>
    <defs>
        <polygon id="path-1" points="6 0 0 5 6 10"></polygon>
    </defs>
    <g id="Page-1" stroke="none" stroke-width="1" fill="none" fill-rule="evenodd">
        <g id="30" transform="translate(-936.000000, -554.000000)">
            <g id="Group-2" transform="translate(762.000000, 541.000000)">
                <g id="Next-Page-Button" transform="translate(159.000000, 0.000000)">
                    <g id="Icon/Message" transform="translate(15.000000, 13.000000)">
                        <mask id="mask-2" fill="white">
                            <use xlink:href="#path-1"></use>
                        </mask>
                        <use id="Right-Arrow" fill="#5F5F75" transform="translate(3.000000, 5.000000) scale(-1, 1) translate(-3.000000, -5.000000) " xlink:href="#path-1"></use>
                    </g>
                </g>
            </g>
        </g>
    </g>
</svg>